temperatur,genuss
6.842178841686153,8.650584925265672
1.1238569138495784,28.44008227776312
2.4713201386216666,31.415257239271572
-0.6568518030282888,-2.5570684387042424
-0.5689062035028312,-2.5839994404546256
1.2818706500463015,4.056435815545772
8.42924038775176,1.1587015221504675
3.247744796892283,22.38489716816423
5.291084161918541,29.823084499928104
-1.4120859808072845,-13.239140586989183
-3.3520542981581176,-62.83841575523444
9.664054982758138,-28.01843994323419
5.8820138729594635,21.065477461392476
4.246977605761819,41.99779395506015
3.5595066229783785,35.32221979226477
7.125234888565215,9.346800210737424
1.9881822536627451,23.21813425469208
4.900340468419495,36.27242719330226
-1.7544913126417985,-23.712588470764285
-1.683603828155039,-25.615185319899478
-0.3777695562180523,-10.618057834956986
5.710066539623001,21.444543761482922
-1.8041606322956296,-38.07241222559787
1.9134832132317352,42.42527873170725
-1.0098907156512351,-15.969371294998735
-0.06782565835476584,-3.7202669414637506
2.862900720899505,40.64632586259948
2.6227381347852043,21.351941531378955
1.903755505024455,36.593526999648034
4.870515860444518,34.68329392734733
0.657479344899428,-2.6572871642318283
-1.1737677402516784,-9.757322972094414
-3.4422931693590826,-75.12308626587105
7.808296044717011,4.108760165783128
5.930914755646064,16.205982681752644
2.0810300887800866,26.65129399398598
0.0666157103875098,14.938882385061536
-4.240696218653793,-77.32167264287285
1.2767228552416996,17.38714802139911
4.349448312197299,34.896853335029135
5.214064452662518,4.788265710279347
3.5791308171734055,31.735505441756843
5.5378601485570496,38.58279078826695
3.3657099275919338,29.893030160230932
4.545451041190037,58.81435089134921
1.772314182609046,30.357621540730655
-4.38956152081307,-99.97940009629374
4.306226942028017,25.081748486585504
1.625869586987078,10.591890774041714
-1.2422884715088696,-11.404379833873332
0.5085460904843906,3.5448131940837335
-1.3377338786623363,-19.543100062185804
3.814882533930698,25.567821110375466
1.3994799662148911,15.291972246649493
7.01026584489942,16.304807025619592
-3.0626808093703204,-40.18982611027822
3.369714743029049,36.351628529752226
2.656681770558085,14.706014921692809
9.359912450621165,-36.35280499558079
-0.874073140700824,-13.115712203663321
6.059093404871155,26.996544529474733
5.821558699183261,24.42174044003624
2.560528839255407,36.66382780380011
2.811665136744738,36.03295750215223
3.029497734215688,30.506764255709843
-2.8994657205705483,-43.87264344612165
0.30559429941923444,12.982434592147435
-4.041139464118785,-79.63369126857863
-0.5738526934642061,1.4143013276734582
-0.2988951648426039,8.754761552347365
0.7329868198225946,22.673056069063996
-3.274493719683977,-70.45854534492007
4.176845432566186,29.65438805546467
-3.7863872206004014,-82.23378241334362
4.6803142443946,40.045461594121704
2.8018624921376074,29.347574607723676
5.224987463860235,19.40756438604099
0.31127016412519204,16.71683512990887
3.419969368531124,35.32789087709079
-1.3917693351703164,-24.334101678319932
1.5880029331510324,22.98459942685452
2.2546491455807836,10.19172274890282
2.7712509134964165,37.92026040594372
4.603009581820082,42.289754198714945
0.8308442789678752,12.778471611285973
1.1045200391825798,23.439572804394185
-2.1847077702711637,-28.218326301887892
-3.6044386344171375,-75.09993563983056
8.322557474110198,-11.998817105299663
-2.5963083579605826,-57.38270550346202
4.196676405144595,31.207452691900826
1.4272319590649576,20.477226760498617
5.774833426596531,18.11279190871572
-0.5407179936402922,-3.5785443104458885
9.649769633629232,-35.004136479410214
1.197239875387016,33.22421548377401
2.1836834676961,28.4667187769597
-1.6205206816588125,-19.226233890866528
3.1875260632318954,50.08921987301945
1.960668013842766,42.92896076389355
0.5587249914024963,-3.70908330852431
-0.17983551144364318,13.67755155047442
2.64465336848272,33.43350392610186
11.453785964072857,-82.70356273310685
2.662880247832953,31.069095432584326
3.4444577390054514,27.98333266184538
1.307620697889285,25.745936004304586
0.8664202334492659,7.3677213980877685
1.061565587618072,18.02249313522779
-2.658905983088257,-54.431312285555855
6.1355765130785755,30.378418127264972
-0.17037223406993762,0.1818235673921329
4.634348230077785,20.860182575871143
-0.5844459041515124,7.076808784074208
1.7061383421504799,21.344146826866652
1.0032556164387683,10.69488283496554
-4.0828832225224865,-74.51236950315023
-2.879757836302134,-52.32628766973728
0.5363813939202349,31.81639120970386
-0.5281265599544369,0.25132317871016463
7.302385621280701,7.3141434870527515
1.9812783176825237,42.50523663528279
4.395166501853112,38.96831541562491
7.583260910905966,7.980203475375714
1.524998579119189,33.80483562065686
5.581355877547109,20.516412338756382
4.454212739856818,22.181506208883285
0.9225472958700276,13.137190951095011
4.94363565738642,17.136979297597065
-0.1715220395032242,1.3408819435443353
3.8546808229598906,27.916026768571776
3.8048861866520345,26.409724901913158
-0.8773547799827011,-4.865501697368672
5.0478887765119556,17.405260678433365
8.649252615014857,5.1775081070182445
2.385899122641594,36.5575526667452
3.071347765404837,32.224633006589606
6.563091916984376,25.175800000394503
-0.20206073848299644,-5.483773929786484
-0.9723176122076831,-18.55576492080698
2.9422258980958427,32.930631157166516
5.38420793982058,21.06724521757823
4.7268387435978125,26.53072657015242
6.546273353319686,14.045452319590726
-4.746675170283508,-107.33704674958369
0.43320677482265646,21.48655737493982
5.612482794988831,25.684652012571448
-1.0709774716477067,-7.524272171513992
8.208474785634312,-13.967303944472791
1.8669782900805767,19.500340439796993
0.09911308836496824,24.988837728363777
0.9800302167090209,21.847254586721398
2.4789342601146154,33.79165587053894
4.890184159671915,22.15922370110184
0.6175719237207744,6.990010763998603
6.142902221217678,37.130889994075375
1.4025543715663942,23.608885888625892
-2.8350529820027726,-60.06603347427139
6.1719256649574925,17.648540446665425
-4.852212707576576,-129.13525301115664
6.939152833321319,13.905185349313408
5.224811949928743,25.038401310672718
0.9367527431178129,17.78157749796128
8.553630870652816,-15.856790216068678
2.1329705281184905,35.83433860057061
0.0969090133592101,0.09215428923620816
3.9370291552997507,31.604690460198594
3.810178079327667,22.50017735093605
2.900653192870948,27.316984931390227
3.2809487653401943,40.14982662399275
2.0485372003651676,52.73929742690949
3.9091090868622866,32.53091669065279
-0.029325563543603383,5.321929823416818
3.5926272852083843,35.23534422045985
-0.5364922709618027,4.347566572509257
-0.044953417298278175,10.286440556185607
2.7114741730782965,35.75857820546192
0.9118453020460655,8.032450302504266
1.5810522120677686,20.168619268350152
4.282904418108569,40.24040971728412
0.8849293676541072,23.297087874054235
-3.742521634878498,-78.28250529536496
6.187643644193276,13.070153886329754
2.2039385074155504,36.78979653629329
5.948194728195294,32.51723240002827
-5.77678049094866,-130.28103175083265
4.084289873958552,19.606667035121628
-1.1320504187408105,-25.551077322533615
1.5913054615229973,29.339224665509636
-1.39338904874983,-7.756396468893959
4.2045448822315645,38.64023634076224
3.9849975090539766,44.9702211527063
-1.2953876035116112,-18.302104232705968
3.5098188245752624,26.782476568724036
0.9480294310413202,19.363768210505377
1.0967090897909206,14.962116679919934
1.201292755693648,26.23073043960176
-1.871491386852509,-16.183319832779752
2.1187400348197984,31.825256472275612
0.552641836951536,11.735759877018614
